%!PS-Adobe-3.0 EPSF-3.0
%%Creator: cairo 1.16.0 (https://cairographics.org)
%%CreationDate: Wed Aug 10 12:08:12 2022
%%Pages: 1
%%DocumentData: Clean7Bit
%%LanguageLevel: 2
%%BoundingBox: 0 0 217 325
%%EndComments
%%BeginProlog
50 dict begin
/q { gsave } bind def
/Q { grestore } bind def
/cm { 6 array astore concat } bind def
/w { setlinewidth } bind def
/J { setlinecap } bind def
/j { setlinejoin } bind def
/M { setmiterlimit } bind def
/d { setdash } bind def
/m { moveto } bind def
/l { lineto } bind def
/c { curveto } bind def
/h { closepath } bind def
/re { exch dup neg 3 1 roll 5 3 roll moveto 0 rlineto
      0 exch rlineto 0 rlineto closepath } bind def
/S { stroke } bind def
/f { fill } bind def
/f* { eofill } bind def
/n { newpath } bind def
/W { clip } bind def
/W* { eoclip } bind def
/BT { } bind def
/ET { } bind def
/BDC { mark 3 1 roll /BDC pdfmark } bind def
/EMC { mark /EMC pdfmark } bind def
/cairo_store_point { /cairo_point_y exch def /cairo_point_x exch def } def
/Tj { show currentpoint cairo_store_point } bind def
/TJ {
  {
    dup
    type /stringtype eq
    { show } { -0.001 mul 0 cairo_font_matrix dtransform rmoveto } ifelse
  } forall
  currentpoint cairo_store_point
} bind def
/cairo_selectfont { cairo_font_matrix aload pop pop pop 0 0 6 array astore
    cairo_font exch selectfont cairo_point_x cairo_point_y moveto } bind def
/Tf { pop /cairo_font exch def /cairo_font_matrix where
      { pop cairo_selectfont } if } bind def
/Td { matrix translate cairo_font_matrix matrix concatmatrix dup
      /cairo_font_matrix exch def dup 4 get exch 5 get cairo_store_point
      /cairo_font where { pop cairo_selectfont } if } bind def
/Tm { 2 copy 8 2 roll 6 array astore /cairo_font_matrix exch def
      cairo_store_point /cairo_font where { pop cairo_selectfont } if } bind def
/g { setgray } bind def
/rg { setrgbcolor } bind def
/d1 { setcachedevice } bind def
/cairo_data_source {
  CairoDataIndex CairoData length lt
    { CairoData CairoDataIndex get /CairoDataIndex CairoDataIndex 1 add def }
    { () } ifelse
} def
/cairo_flush_ascii85_file { cairo_ascii85_file status { cairo_ascii85_file flushfile } if } def
/cairo_image { image cairo_flush_ascii85_file } def
/cairo_imagemask { imagemask cairo_flush_ascii85_file } def
%%EndProlog
%%BeginSetup
%%EndSetup
%%Page: 1 1
%%BeginPageSetup
%%PageBoundingBox: 0 0 217 325
%%EndPageSetup
q 0 0 217 325 rectclip
1 0 0 -1 0 325 cm q
0 g
0.535681 w
0 J
0 j
[] 0.0 d
4 M q 1 0 0 1 0 0 cm
207.77 0.27 m 208.438 0.297 l 209.098 0.371 l 209.754 0.504 l 210.398 0.684
 l 211.023 0.918 l 211.629 1.195 l 212.211 1.523 l 212.766 1.891 l 213.293
 2.305 l 213.781 2.758 l 214.234 3.25 l 214.648 3.773 l 215.02 4.328 l 215.348
 4.914 l 215.625 5.52 l 215.855 6.145 l 216.039 6.789 l 216.168 7.441 l 
216.246 8.105 l 216.273 8.773 l 216.273 315.77 l 216.246 316.438 l 216.168
 317.098 l 216.039 317.754 l 215.855 318.398 l 215.625 319.023 l 215.348
 319.629 l 215.02 320.211 l 214.648 320.766 l 214.234 321.293 l 213.781 
321.781 l 213.293 322.234 l 212.766 322.648 l 212.211 323.02 l 211.629 323.348
 l 211.023 323.625 l 210.398 323.855 l 209.754 324.039 l 209.098 324.168
 l 208.438 324.246 l 207.766 324.273 l 8.773 324.273 l 8.105 324.246 l 7.441
 324.168 l 6.789 324.039 l 6.145 323.855 l 5.52 323.625 l 4.914 323.348 
l 4.328 323.02 l 3.773 322.648 l 3.25 322.234 l 2.758 321.781 l 2.305 321.293
 l 1.891 320.766 l 1.523 320.211 l 1.195 319.629 l 0.918 319.023 l 0.684
 318.398 l 0.504 317.754 l 0.371 317.098 l 0.297 316.438 l 0.27 315.766 
l 0.27 8.773 l 0.297 8.105 l 0.371 7.441 l 0.504 6.789 l 0.684 6.145 l 0.918
 5.52 l 1.195 4.914 l 1.523 4.328 l 1.891 3.773 l 2.305 3.25 l 2.758 2.758
 l 3.25 2.305 l 3.773 1.891 l 4.328 1.523 l 4.914 1.195 l 5.52 0.918 l 6.145
 0.684 l 6.789 0.504 l 7.441 0.371 l 8.105 0.297 l 8.773 0.27 l h
207.77 0.27 m S Q
q 1 0 0 1 0 0 cm
34.43 277.426 m 34.43 280.262 l 32.16 280.262 l 32.16 289.047 l 34.43 289.047
 l 34.43 290.75 l 30.105 290.75 l 30.105 281.594 l 25.215 281.594 l 25.215
 278.984 l 15.859 278.984 l 15.859 281.594 l 10.973 281.594 l 10.973 290.75
 l 8.629 290.75 l 8.629 298.684 l 10.973 298.684 l 10.973 316.457 l 15.859
 316.457 l 15.859 319.238 l 25.215 319.238 l 25.215 316.457 l 30.105 316.457
 l 30.105 303.789 l 34.43 303.789 l 34.43 305.492 l 32.16 305.492 l 32.16
 314.277 l 34.43 314.277 l 34.43 317.109 l 74.113 317.109 l 74.113 314.277
 l 76.383 314.277 l 76.383 305.492 l 74.113 305.492 l 74.113 303.789 l 78.438
 303.789 l 78.438 316.457 l 83.324 316.457 l 83.324 319.238 l 92.68 319.238
 l 92.68 316.457 l 97.57 316.457 l 97.57 298.684 l 99.91 298.684 l 99.91
 290.75 l 97.57 290.75 l 97.57 281.594 l 92.68 281.594 l 92.68 278.984 l
 83.324 278.984 l 83.324 281.594 l 78.438 281.594 l 78.438 290.75 l 74.113
 290.75 l 74.113 289.047 l 76.383 289.047 l 76.383 280.262 l 74.113 280.262
 l 74.113 277.426 l h
34.43 277.426 m S Q
q 1 0 0 1 0 0 cm
115.43 277.426 m 115.43 280.262 l 113.16 280.262 l 113.16 289.047 l 115.43
 289.047 l 115.43 305.492 l 113.16 305.492 l 113.16 314.277 l 115.43 314.277
 l 115.43 317.109 l 155.113 317.109 l 155.113 314.277 l 157.383 314.277 
l 157.383 305.492 l 155.113 305.492 l 155.113 289.047 l 157.383 289.047 
l 157.383 280.262 l 155.113 280.262 l 155.113 277.426 l h
115.43 277.426 m S Q
q 1 0 0 1 0 0 cm
187.852 224.633 m 187.852 226.973 l 170.082 226.973 l 170.082 231.859 l
 167.301 231.859 l 167.301 241.215 l 170.082 241.215 l 170.082 246.105 l
 182.75 246.105 l 182.75 250.43 l 181.047 250.43 l 181.047 248.16 l 172.262
 248.16 l 172.262 250.43 l 169.43 250.43 l 169.43 290.113 l 172.262 290.113
 l 172.262 292.383 l 181.047 292.383 l 181.047 290.113 l 182.75 290.113 
l 182.75 294.438 l 170.082 294.438 l 170.082 299.324 l 167.301 299.324 l
 167.301 308.68 l 170.082 308.68 l 170.082 313.57 l 187.852 313.57 l 187.852
 315.91 l 195.789 315.91 l 195.789 313.57 l 204.945 313.57 l 204.945 308.68
 l 207.555 308.68 l 207.555 299.324 l 204.945 299.324 l 204.945 294.438 
l 195.789 294.438 l 195.789 290.113 l 197.492 290.113 l 197.492 292.383 
l 206.277 292.383 l 206.277 290.113 l 209.113 290.113 l 209.113 250.43 l
 206.277 250.43 l 206.277 248.16 l 197.492 248.16 l 197.492 250.43 l 195.789
 250.43 l 195.789 246.105 l 204.945 246.105 l 204.945 241.215 l 207.555 
241.215 l 207.555 231.859 l 204.945 231.859 l 204.945 226.973 l 195.789 
226.973 l 195.789 224.633 l h
187.852 224.633 m S Q
q 1 0 0 1 0 0 cm
7.43 223.43 m 7.43 226.262 l 5.16 226.262 l 5.16 235.047 l 7.43 235.047
 l 7.43 251.492 l 5.16 251.492 l 5.16 260.277 l 7.43 260.277 l 7.43 263.113
 l 47.113 263.113 l 47.113 260.277 l 49.383 260.277 l 49.383 251.492 l 47.113
 251.492 l 47.113 235.047 l 49.383 235.047 l 49.383 226.262 l 47.113 226.262
 l 47.113 223.43 l h
7.43 223.43 m S Q
q 1 0 0 1 0 0 cm
61.43 223.43 m 61.43 226.262 l 59.16 226.262 l 59.16 235.047 l 61.43 235.047
 l 61.43 251.492 l 59.16 251.492 l 59.16 260.277 l 61.43 260.277 l 61.43
 263.113 l 101.113 263.113 l 101.113 260.277 l 103.383 260.277 l 103.383
 251.492 l 101.113 251.492 l 101.113 235.047 l 103.383 235.047 l 103.383
 226.262 l 101.113 226.262 l 101.113 223.43 l h
61.43 223.43 m S Q
q 1 0 0 1 0 0 cm
115.43 223.43 m 115.43 226.262 l 113.16 226.262 l 113.16 235.047 l 115.43
 235.047 l 115.43 251.492 l 113.16 251.492 l 113.16 260.277 l 115.43 260.277
 l 115.43 263.113 l 155.113 263.113 l 155.113 260.277 l 157.383 260.277 
l 157.383 251.492 l 155.113 251.492 l 155.113 235.047 l 157.383 235.047 
l 157.383 226.262 l 155.113 226.262 l 155.113 223.43 l h
115.43 223.43 m S Q
q 1 0 0 1 0 0 cm
7.43 169.43 m 7.43 172.262 l 5.16 172.262 l 5.16 181.047 l 7.43 181.047
 l 7.43 197.492 l 5.16 197.492 l 5.16 206.277 l 7.43 206.277 l 7.43 209.113
 l 47.113 209.113 l 47.113 206.277 l 49.383 206.277 l 49.383 197.492 l 47.113
 197.492 l 47.113 181.047 l 49.383 181.047 l 49.383 172.262 l 47.113 172.262
 l 47.113 169.43 l h
7.43 169.43 m S Q
q 1 0 0 1 0 0 cm
61.43 169.43 m 61.43 172.262 l 59.16 172.262 l 59.16 181.047 l 61.43 181.047
 l 61.43 197.492 l 59.16 197.492 l 59.16 206.277 l 61.43 206.277 l 61.43
 209.113 l 101.113 209.113 l 101.113 206.277 l 103.383 206.277 l 103.383
 197.492 l 101.113 197.492 l 101.113 181.047 l 103.383 181.047 l 103.383
 172.262 l 101.113 172.262 l 101.113 169.43 l h
61.43 169.43 m S Q
q 1 0 0 1 0 0 cm
115.43 169.43 m 115.43 172.262 l 113.16 172.262 l 113.16 181.047 l 115.43
 181.047 l 115.43 197.492 l 113.16 197.492 l 113.16 206.277 l 115.43 206.277
 l 115.43 209.113 l 155.113 209.113 l 155.113 206.277 l 157.383 206.277 
l 157.383 197.492 l 155.113 197.492 l 155.113 181.047 l 157.383 181.047 
l 157.383 172.262 l 155.113 172.262 l 155.113 169.43 l h
115.43 169.43 m S Q
q 1 0 0 1 0 0 cm
187.852 116.633 m 187.852 118.973 l 170.082 118.973 l 170.082 123.859 l
 167.301 123.859 l 167.301 133.215 l 170.082 133.215 l 170.082 138.105 l
 182.75 138.105 l 182.75 142.43 l 181.047 142.43 l 181.047 140.16 l 172.262
 140.16 l 172.262 142.43 l 169.43 142.43 l 169.43 182.113 l 172.262 182.113
 l 172.262 184.383 l 181.047 184.383 l 181.047 182.113 l 182.75 182.113 
l 182.75 186.438 l 170.082 186.438 l 170.082 191.324 l 167.301 191.324 l
 167.301 200.68 l 170.082 200.68 l 170.082 205.57 l 187.852 205.57 l 187.852
 207.91 l 195.789 207.91 l 195.789 205.57 l 204.945 205.57 l 204.945 200.68
 l 207.555 200.68 l 207.555 191.324 l 204.945 191.324 l 204.945 186.438 
l 195.789 186.438 l 195.789 182.113 l 197.492 182.113 l 197.492 184.383 
l 206.277 184.383 l 206.277 182.113 l 209.113 182.113 l 209.113 142.43 l
 206.277 142.43 l 206.277 140.16 l 197.492 140.16 l 197.492 142.43 l 195.789
 142.43 l 195.789 138.105 l 204.945 138.105 l 204.945 133.215 l 207.555 
133.215 l 207.555 123.859 l 204.945 123.859 l 204.945 118.973 l 195.789 
118.973 l 195.789 116.633 l h
187.852 116.633 m S Q
q 1 0 0 1 0 0 cm
7.43 115.43 m 7.43 118.262 l 5.16 118.262 l 5.16 127.051 l 7.43 127.051
 l 7.43 143.492 l 5.16 143.492 l 5.16 152.277 l 7.43 152.277 l 7.43 155.113
 l 47.113 155.113 l 47.113 152.277 l 49.383 152.277 l 49.383 143.492 l 47.113
 143.492 l 47.113 127.051 l 49.383 127.051 l 49.383 118.262 l 47.113 118.262
 l 47.113 115.43 l h
7.43 115.43 m S Q
q 1 0 0 1 0 0 cm
61.43 115.43 m 61.43 118.262 l 59.16 118.262 l 59.16 127.051 l 61.43 127.051
 l 61.43 143.492 l 59.16 143.492 l 59.16 152.277 l 61.43 152.277 l 61.43
 155.113 l 101.113 155.113 l 101.113 152.277 l 103.383 152.277 l 103.383
 143.492 l 101.113 143.492 l 101.113 127.051 l 103.383 127.051 l 103.383
 118.262 l 101.113 118.262 l 101.113 115.43 l h
61.43 115.43 m S Q
q 1 0 0 1 0 0 cm
115.43 115.43 m 115.43 118.262 l 113.16 118.262 l 113.16 127.051 l 115.43
 127.051 l 115.43 143.492 l 113.16 143.492 l 113.16 152.277 l 115.43 152.277
 l 115.43 155.113 l 155.113 155.113 l 155.113 152.277 l 157.383 152.277 
l 157.383 143.492 l 155.113 143.492 l 155.113 127.051 l 157.383 127.051 
l 157.383 118.262 l 155.113 118.262 l 155.113 115.43 l h
115.43 115.43 m S Q
q 1 0 0 1 0 0 cm
7.43 61.43 m 7.43 64.262 l 5.16 64.262 l 5.16 73.051 l 7.43 73.051 l 7.43
 89.492 l 5.16 89.492 l 5.16 98.277 l 7.43 98.277 l 7.43 101.113 l 47.113
 101.113 l 47.113 98.277 l 49.383 98.277 l 49.383 89.492 l 47.113 89.492
 l 47.113 73.051 l 49.383 73.051 l 49.383 64.262 l 47.113 64.262 l 47.113
 61.43 l h
7.43 61.43 m S Q
q 1 0 0 1 0 0 cm
61.43 61.43 m 61.43 64.262 l 59.16 64.262 l 59.16 73.051 l 61.43 73.051
 l 61.43 89.492 l 59.16 89.492 l 59.16 98.277 l 61.43 98.277 l 61.43 101.113
 l 101.113 101.113 l 101.113 98.277 l 103.383 98.277 l 103.383 89.492 l 
101.113 89.492 l 101.113 73.051 l 103.383 73.051 l 103.383 64.262 l 101.113
 64.262 l 101.113 61.43 l h
61.43 61.43 m S Q
q 1 0 0 1 0 0 cm
115.43 61.43 m 115.43 64.262 l 113.16 64.262 l 113.16 73.051 l 115.43 73.051
 l 115.43 89.492 l 113.16 89.492 l 113.16 98.277 l 115.43 98.277 l 115.43
 101.113 l 155.113 101.113 l 155.113 98.277 l 157.383 98.277 l 157.383 89.492
 l 155.113 89.492 l 155.113 73.051 l 157.383 73.051 l 157.383 64.262 l 155.113
 64.262 l 155.113 61.43 l h
115.43 61.43 m S Q
q 1 0 0 1 0 0 cm
169.43 61.43 m 169.43 64.262 l 167.16 64.262 l 167.16 73.051 l 169.43 73.051
 l 169.43 89.492 l 167.16 89.492 l 167.16 98.277 l 169.43 98.277 l 169.43
 101.113 l 209.113 101.113 l 209.113 98.277 l 211.383 98.277 l 211.383 89.492
 l 209.113 89.492 l 209.113 73.051 l 211.383 73.051 l 211.383 64.262 l 209.113
 64.262 l 209.113 61.43 l h
169.43 61.43 m S Q
q 1 0 0 1 0 0 cm
7.43 7.43 m 7.43 10.262 l 5.16 10.262 l 5.16 19.051 l 7.43 19.051 l 7.43
 35.492 l 5.16 35.492 l 5.16 44.277 l 7.43 44.277 l 7.43 47.113 l 47.113
 47.113 l 47.113 44.277 l 49.383 44.277 l 49.383 35.492 l 47.113 35.492 
l 47.113 19.051 l 49.383 19.051 l 49.383 10.262 l 47.113 10.262 l 47.113
 7.43 l h
7.43 7.43 m S Q
q 1 0 0 1 0 0 cm
61.43 7.43 m 61.43 10.262 l 59.16 10.262 l 59.16 19.051 l 61.43 19.051 
l 61.43 35.492 l 59.16 35.492 l 59.16 44.277 l 61.43 44.277 l 61.43 47.113
 l 101.113 47.113 l 101.113 44.277 l 103.383 44.277 l 103.383 35.492 l 101.113
 35.492 l 101.113 19.051 l 103.383 19.051 l 103.383 10.262 l 101.113 10.262
 l 101.113 7.43 l h
61.43 7.43 m S Q
q 1 0 0 1 0 0 cm
115.43 7.43 m 115.43 10.262 l 113.16 10.262 l 113.16 19.051 l 115.43 19.051
 l 115.43 35.492 l 113.16 35.492 l 113.16 44.277 l 115.43 44.277 l 115.43
 47.113 l 155.113 47.113 l 155.113 44.277 l 157.383 44.277 l 157.383 35.492
 l 155.113 35.492 l 155.113 19.051 l 157.383 19.051 l 157.383 10.262 l 155.113
 10.262 l 155.113 7.43 l h
115.43 7.43 m S Q
q 1 0 0 1 0 0 cm
169.43 7.43 m 169.43 10.262 l 167.16 10.262 l 167.16 19.051 l 169.43 19.051
 l 169.43 35.492 l 167.16 35.492 l 167.16 44.277 l 169.43 44.277 l 169.43
 47.113 l 209.113 47.113 l 209.113 44.277 l 211.383 44.277 l 211.383 35.492
 l 209.113 35.492 l 209.113 19.051 l 211.383 19.051 l 211.383 10.262 l 209.113
 10.262 l 209.113 7.43 l h
169.43 7.43 m S Q
Q Q
showpage
%%Trailer
end
%%EOF
